{
    "prefix": "!",
    "commands": {
        "youtube": {
            "cooldown":30,
            "possibleAnswers": [
                "Ich bin auch auf YouTube aktiv, schau doch mal vorbei: https://youtube.com/rgbpixl"
            ],
            "aliases": [
                "yt"
            ]
        },
        "verpeilt": {
            "cooldown":10,
            "possibleAnswers": "Fragt ihr euch manchmal auch: WARUM TUT DAS NICHT? und bemerkt ein bisschen später: Ach ich hab ja was vergessen... Manchen Streamern passiert das oft! *hust*"
        },
        "turtle": {"possibleAnswers":"Erwähne sie nicht! Das ist der Block, der nicht genannt werden darf!", "cooldown": 60},
        "prime": "Amazon Prime 30 Tage kostenlos testen: http://www.amazon.de/gp/video/primesignup?tag=r0629a-21",
        "donate":{
            "possibleAnswers":"Wenn du mir ein kleines Trinkgeld da lassen möchtest, kannst du das hier tun: https://streamelements.com/rgbpixl/tip",
            "aliases":["spende","donation"]
        },
        "discord": {
            "possibleAnswers": "Hier kommst du direkt zu meinem Discord: https://discord.gg/J7mVuBs",
            "aliases": [
                "dc",
                "dis"
            ]
        },
        "clteilnehmer": " Bei CREATE Live machen aktuell folgende Teilnehmer mit: Blizzor, Clym, Fabo, halbzwilling, RGBPixl, SparkofPhoenix & TheJoCraft",
        "amazon": "Unterstütze mich kostenlos mit deinem Einkauf auf Amazon: https://amzn.to/2BwiTnP",
        "setup": {
            "possibleAnswers": "Das ist mein Setup: https://www.amazon.de/shop/rgbpixl",
            "aliases": [
                "gear",
                "pc",
                "equip",
                "equipment"
            ]
        },
        "uptime": {
            "implyVariables": true,
            "possibleAnswers": [
                "Der Stream läuft schon seit unglaublichen: %UPTIME%"
            ]
        },
        "poll": {
            "implyVariables": true,
            "possibleAnswers": "Polls sind temporär nicht verfügbar (danke, Twitch!)",
            "x-possibleAnswers": {
                "type": "randomAnswers",
                "id": "manPoll"
            },
            "aliases": [
                "umfrage"
            ]
        },
        "squad stream": {
            "includePrefix": false,
            "implyVariables": true,
            "possibleAnswers": "@%USER% Pixl ist aktuell leider kein Twitch Partner, von daher kann er nicht Squadtreamen",
            "aliases": [
                "squad-stream"
            ]
        },
        "welcher shader": {
            "includePrefix": false,
            "possibleAnswers": "Pixl benutzt aktuell keinen Shader. Früher hatte er in der Overworld den Sildurs Vibrant Shader und im Nether den BSL Shader.",
            "aliases": [
                "welchen shader",
                "!shader"
            ]
        },
        "wie alt du": {
            "includePrefix": false,
            "implyVariables": true,
            "possibleAnswers": "@%USER% Pixl ist aktuell 28.",
            "aliases": [
                "wie jung du",
                "wie alt pixl",
                "wie jung pixl",
                "!alter"
            ]
        },
        "wo wohnst du": {
            "includePrefix": false,
            "possibleAnswers": "Pixl wohnt zur Zeit in München.",
            "aliases": [
                "wo du wohnst",
                "wo wohnt pixl",
                "!wohnort"
            ]
        },
        "infos": {
            "cooldown":120,
            "possibleAnswers": [
                "Pixl ist 28 und wohnt in München."
            ],
            "aliases": [
                "info"
            ]
        },
        "mattock": "Mattocks werden in diesem Stream grundsätzlich in Lava geworfen!",
        "help": {
            "possibleAnswers": [
                "Commands: !yt !dc !verpeilt !turtle !clteilnehmer !amazon !pc !uptime !poll !info !mattock"
            ],
            "aliases": [
                "commands"
            ]
        }
    }
}